{
	"id": "76b9f430-37fe-45ba-9b19-15dec17d3f97",
	"name": "production",
	"values": [
		{
			"key": "baseUrl",
			"value": "http://production.eba-cmmcar7u.us-east-1.elasticbeanstalk.com",
			"enabled": true
		}
	],
	"_postman_variable_scope": "environment",
	"_postman_exported_at": "2020-10-07T17:33:30.741Z",
	"_postman_exported_using": "Postman/7.33.1"
}